<?xml version="1.0" encoding="utf-8"?>
<!-- Generator: Adobe Illustrator 24.1.0, SVG Export Plug-In . SVG Version: 6.00 Build 0)  -->
<svg version="1.1" id="Layer_1" xmlns="http://www.w3.org/2000/svg" xmlns:xlink="http://www.w3.org/1999/xlink" x="0px" y="0px"
	 viewBox="0 0 118.3 113.5" style="enable-background:new 0 0 118.3 113.5;" xml:space="preserve">
<style type="text/css">
	.st0{fill:none;stroke:#A4192C;stroke-width:1.405;stroke-miterlimit:10;}
	.st1{fill:#A4192C;}
	.st2{fill:none;stroke:#A4192C;stroke-width:0.854;stroke-miterlimit:10;}
	.st3{fill:none;stroke:#D1113C;stroke-miterlimit:10;}
	.st4{clip-path:url(#SVGID_2_);fill:#FFFFFF;}
	.st5{clip-path:url(#SVGID_2_);fill:#DFDDDC;}
	.st6{clip-path:url(#SVGID_4_);fill:#FFFFFF;}
	.st7{clip-path:url(#SVGID_6_);fill:#F6F6F7;}
	.st8{clip-path:url(#SVGID_8_);}
	.st9{clip-path:url(#SVGID_12_);}
	.st10{clip-path:url(#SVGID_16_);}
	.st11{clip-path:url(#SVGID_20_);}
	.st12{clip-path:url(#SVGID_24_);}
	.st13{clip-path:url(#SVGID_28_);fill:#FFFFFF;}
	.st14{clip-path:url(#SVGID_28_);fill:#DFDDDC;}
	.st15{clip-path:url(#SVGID_30_);}
	.st16{clip-path:url(#SVGID_34_);}
	.st17{clip-path:url(#SVGID_38_);fill:#B91826;}
	.st18{clip-path:url(#SVGID_40_);fill:#FFFFFF;}
	.st19{clip-path:url(#SVGID_42_);fill:#FFFFFF;}
	.st20{clip-path:url(#SVGID_44_);}
	.st21{clip-path:url(#SVGID_48_);fill:#A91D1F;}
	.st22{clip-path:url(#SVGID_50_);}
	.st23{clip-path:url(#SVGID_54_);}
	.st24{fill:none;stroke:#D1113C;stroke-width:1.774;stroke-linecap:round;stroke-linejoin:round;stroke-miterlimit:10;}
	.st25{clip-path:url(#SVGID_58_);}
	.st26{clip-path:url(#SVGID_62_);}
	.st27{clip-path:url(#SVGID_66_);}
	.st28{fill:none;stroke:#A4192C;stroke-width:1.14;stroke-miterlimit:10;}
	.st29{fill:#D11046;}
	.st30{fill:none;stroke:#D11046;stroke-miterlimit:10;}
	.st31{fill:none;stroke:#DAD6D5;stroke-miterlimit:10;}
	.st32{fill:#D1113C;}
	.st33{font-family:'Verdana';}
	.st34{font-size:15px;}
	.st35{fill:#FFFFFF;stroke:#D1113C;stroke-width:1.774;stroke-linecap:round;stroke-linejoin:round;stroke-miterlimit:10;}
	.st36{fill:none;stroke:#D1113C;stroke-width:1.774;stroke-linecap:round;stroke-linejoin:round;stroke-dasharray:7.7132,7.7132;}
	.st37{fill:none;stroke:#000000;stroke-miterlimit:10;}
	.st38{fill:none;stroke:#000000;stroke-width:4;stroke-miterlimit:10;}
	.st39{fill:none;stroke:#E6007E;stroke-width:4;stroke-miterlimit:10;}
	.st40{fill:#E6007E;}
	.st41{fill:#00AAA8;}
</style>
<text transform="matrix(1 0 0 1 18.7683 102.6042)" class="st32 st33 st34">Gluten-free</text>
<line class="st24" x1="62.4" y1="17.6" x2="62.4" y2="23.4"/>
<line class="st24" x1="56.2" y1="17.6" x2="56.2" y2="23.4"/>
<g>
	<path class="st24" d="M50.4,65.3c-4.1-4.1-2.2-9.4-2.2-9.4s5.3-1.9,9.4,2.2c4.1,4.1,2.2,9.4,2.2,9.4S54.6,69.5,50.4,65.3z"/>
	<path class="st24" d="M59.3,67.7c3.2,0.9,6.5,0,8.8-2.4c4.1-4.1,2.2-9.4,2.2-9.4s-5.3-1.9-9.4,2.2c-0.6,0.6-1.2,1.3-1.6,2.1"/>
	<path class="st24" d="M51.1,55.4c-0.2-0.2-0.4-0.4-0.6-0.6c-4.1-4.1-2.2-9.4-2.2-9.4s5.3-1.9,9.4,2.2c4.1,4.1,2.2,11.6,2.2,11.6"/>
	<path class="st24" d="M67.5,55.4c0.2-0.2,0.4-0.4,0.6-0.6c4.1-4.1,2.2-9.4,2.2-9.4s-5.3-1.9-9.4,2.2c-0.6,0.6-1.2,1.3-1.6,2.1"/>
	<path class="st24" d="M51.1,45c-0.2-0.2-0.4-0.4-0.6-0.6c-4.1-4.1-2.2-9.4-2.2-9.4s5.3-1.9,9.4,2.2c4.1,4.1,2.2,11.5,2.2,11.5"/>
	<path class="st24" d="M67.5,45c0.2-0.2,0.4-0.4,0.6-0.6c4.1-4.1,2.2-9.4,2.2-9.4s-5.3-1.9-9.4,2.2c-0.6,0.6-1.2,1.3-1.6,2.1"/>
	<path class="st24" d="M64.4,35c0.1-0.5,0.1-1,0.1-1.5c0-5.9-5.2-8.3-5.2-8.3s-5.2,2.4-5.2,8.4c0,0.5,0,1,0.1,1.5"/>
	<line class="st24" x1="68" y1="23.1" x2="68" y2="28.3"/>
	<line class="st24" x1="50.6" y1="23.1" x2="50.6" y2="28.3"/>
	<line class="st24" x1="59.3" y1="76.6" x2="59.3" y2="67.7"/>
	<path class="st24" d="M59.3,76.6c17.6,0,31.9-14.3,31.9-31.9c0-17.6-14.3-31.9-31.9-31.9c-17.6,0-31.9,14.3-31.9,31.9
		C27.4,62.3,41.7,76.6,59.3,76.6z"/>
	<line class="st24" x1="69.5" y1="34.5" x2="81.9" y2="22.1"/>
	<line class="st24" x1="36.7" y1="67.2" x2="49.7" y2="54.3"/>
</g>
</svg>
