<?xml version="1.0" encoding="UTF-8"?>
<svg width="33px" height="33px" viewBox="0 0 33 33" version="1.1" xmlns="http://www.w3.org/2000/svg" xmlns:xlink="http://www.w3.org/1999/xlink">
    <!-- Generator: Sketch 62 (91390) - https://sketch.com -->
    <title>facebook-logo</title>
    <desc>Created with Sketch.</desc>
    <g id="Brand" stroke="none" stroke-width="1" fill="none" fill-rule="evenodd">
        <g id="facebook-copy" transform="translate(-9.000000, -9.000000)" fill="#FFFFFF" fill-rule="nonzero">
            <g id="facebook-logo" transform="translate(9.000000, 9.000000)">
                <path d="M31.1775341,0 L1.82137917,0 C0.816143055,0 0,0.814512942 0,1.82137917 L0,31.1775341 C0,32.1844003 0.816143055,33 1.82137917,33 L17.6258645,33 L17.6258645,20.2204604 L13.3256273,20.2204604 L13.3256273,15.2393796 L17.6258645,15.2393796 L17.6258645,11.5661925 C17.6258645,7.30453468 20.2280676,4.98271093 24.030577,4.98271093 C25.8535862,4.98271093 27.4168643,5.11909702 27.8727524,5.17832444 L27.8727524,9.63287888 L25.2352302,9.63396562 C23.167704,9.63396562 22.7688698,10.6169235 22.7688698,12.0584865 L22.7688698,15.2377495 L27.7015906,15.2377495 L27.0566094,20.2182869 L22.7683264,20.2182869 L22.7683264,32.9983699 L31.1769907,32.9983699 C32.1833136,32.9983699 33,32.1816835 33,31.1775341 L33,1.82029243 C32.9994566,0.814512942 32.1838569,0 31.1775341,0 Z" id="Path"></path>
            </g>
        </g>
    </g>
</svg>