<?xml version="1.0" encoding="UTF-8"?>
<svg width="50px" height="50px" viewBox="0 0 50 50" version="1.1" xmlns="http://www.w3.org/2000/svg" xmlns:xlink="http://www.w3.org/1999/xlink">
    <!-- Generator: Sketch 62 (91390) - https://sketch.com -->
    <title>facebook</title>
    <desc>Created with Sketch.</desc>
    <g id="facebook" stroke="none" stroke-width="1" fill="none" fill-rule="evenodd">
        <g id="facebook-app-logo-copy" transform="translate(12.000000, 12.000000)" fill="#D31145" fill-rule="nonzero">
            <path d="M25.5088915,0 L1.49021932,0 C0.667753408,0 0,0.66641968 0,1.49021932 L0,25.5088915 C0,26.3326912 0.667753408,27 1.49021932,27 L14.4211618,27 L14.4211618,16.544013 L10.902786,16.544013 L10.902786,12.4685833 L14.4211618,12.4685833 L14.4211618,9.46324837 C14.4211618,5.97643746 16.5502371,4.07676349 19.6613811,4.07676349 C21.1529342,4.07676349 22.4319798,4.1883521 22.8049793,4.23681091 L22.8049793,7.88144635 L20.6470065,7.88233551 C18.9553942,7.88233551 18.6290753,8.6865738 18.6290753,9.86603438 L18.6290753,12.4672496 L22.6649378,12.4672496 L22.1372258,16.5422347 L18.6286307,16.5422347 L18.6286307,26.9986663 L25.5084469,26.9986663 C26.331802,26.9986663 27,26.3304683 27,25.5088915 L27,1.48933017 C26.9995554,0.66641968 26.3322466,0 25.5088915,0 Z" id="Path"></path>
        </g>
    </g>
</svg>