<?xml version="1.0" encoding="UTF-8"?>
<svg width="50px" height="50px" viewBox="0 0 50 50" version="1.1" xmlns="http://www.w3.org/2000/svg" xmlns:xlink="http://www.w3.org/1999/xlink">
    <!-- Generator: Sketch 62 (91390) - https://sketch.com -->
    <title>finished product</title>
    <desc>Created with Sketch.</desc>
    <defs>
        <polygon id="path-1" points="0.182651918 0.575675676 9.34283378 0.575675676 9.34283378 29.189027 0.182651918 29.189027"></polygon>
    </defs>
    <g id="finished-product" stroke="none" stroke-width="1" fill="none" fill-rule="evenodd">
        <g id="Group-16-Copy" transform="translate(11.000000, 10.000000)">
            <path d="M11.951027,20.4326757 L11.951027,20.5380811 L11.9599459,20.5380811 C11.9599459,20.4975405 11.9599459,20.4561892 11.951027,20.4326757" id="Fill-1" fill="#D0113C"></path>
            <path d="M1.42710811,22.5808378 C1.08656757,22.5808378 0.810891892,22.3051622 0.810891892,21.9646216 C0.810891892,21.6240811 1.08656757,21.3484054 1.42710811,21.3484054 L6.39737838,21.3484054 L6.41278378,21.3484054 L16.5154865,21.3484054 C16.8649459,21.3484054 17.1325135,21.6240811 17.1325135,21.9646216 C17.1325135,22.3051622 16.8568378,22.5808378 16.5154865,22.5808378 L1.42710811,22.5808378 Z M16.0865676,26.4240811 L11.9506216,26.4240811 L11.9506216,25.9781351 C12.1946757,25.2078649 13.3217027,24.7781351 13.7514324,24.6816486 C14.391973,24.5194865 15.0162973,24.0565135 15.4298108,23.6997568 C15.5108919,23.8789459 15.6325135,24.0970541 15.7865676,24.3816486 C16.4027838,25.4105676 16.2162973,26.1240811 16.0865676,26.4240811 L16.0865676,26.4240811 Z M16.5154865,27.2348919 C16.8649459,27.2348919 17.1325135,27.5105676 17.1325135,27.8511081 C17.1325135,28.1916486 16.8568378,28.4681351 16.5154865,28.4681351 L1.42710811,28.4681351 C1.08656757,28.4681351 0.810891892,28.1916486 0.810891892,27.8511081 C0.810891892,27.5105676 1.08656757,27.2348919 1.42710811,27.2348919 L6.39737838,27.2348919 L6.41278378,27.2348919 L11.5054865,27.2348919 L11.5217027,27.2348919 L16.5154865,27.2348919 Z M6.71359459,24.9248919 C6.63251351,25.0051622 6.55954054,25.0870541 6.48656757,25.1754324 C5.81359459,24.2348919 4.45954054,23.9113784 4.39467568,23.8943514 C4.07845946,23.8140811 3.72981081,23.6113784 3.42981081,23.3916486 L8.09197297,23.3916486 L6.71359459,24.9248919 Z M9.9162973,23.3916486 L14.5135946,23.3916486 C14.2135946,23.6113784 13.8730541,23.8140811 13.5649459,23.8862432 C13.5000811,23.9024595 12.1784595,24.2194865 11.4973784,25.1275946 C11.4803514,25.1024595 11.4649459,25.0870541 11.4568378,25.0781351 L9.9162973,23.3916486 Z M10.8649459,25.6302973 C10.8649459,25.6384054 11.1073784,25.905973 11.1398108,26.3348919 L11.1398108,26.4240811 L6.81089189,26.4240811 C6.84332432,26.1565135 6.96494595,25.815973 7.29737838,25.4835405 L9.00008108,23.5943514 L10.8649459,25.6302973 Z M2.16494595,24.3727297 C2.319,24.0970541 2.43251351,23.8789459 2.5217027,23.6997568 C2.92710811,24.0565135 3.55954054,24.5194865 4.20818919,24.6816486 C4.22440541,24.6816486 5.70008108,25.0457027 5.99197297,25.9781351 L5.99197297,26.4240811 L1.86494595,26.4240811 C1.72710811,26.1240811 1.54062162,25.4105676 2.16494595,24.3727297 L2.16494595,24.3727297 Z M2.16494595,18.4862432 C2.319,18.2105676 2.43251351,17.9924595 2.5217027,17.8132703 C2.92710811,18.1708378 3.55954054,18.6321892 4.20818919,18.7943514 C4.22440541,18.7943514 5.70008108,19.1673243 5.99197297,20.0924595 L5.99197297,20.5375946 L1.86494595,20.5375946 C1.72710811,20.2457027 1.54062162,19.5321892 2.16494595,18.4862432 L2.16494595,18.4862432 Z M1.42710811,16.6943514 C1.08656757,16.6943514 0.810891892,16.4186757 0.810891892,16.0781351 C0.810891892,15.7384054 1.08656757,15.4627297 1.42710811,15.4627297 L16.5244054,15.4627297 C16.8649459,15.4627297 17.1406216,15.7384054 17.1406216,16.0781351 C17.1406216,16.4186757 16.8649459,16.6943514 16.5244054,16.6943514 L1.42710811,16.6943514 Z M3.7217027,12.9565135 C3.7217027,12.5024595 3.90008108,12.0816486 4.22440541,11.7565135 C4.48386486,11.4970541 4.83251351,11.3186757 5.19656757,11.2708378 C5.319,11.2538108 5.4317027,11.1808378 5.49737838,11.0762432 C5.55413514,10.9619189 5.56224324,10.833 5.5217027,10.7186757 C5.19656757,9.90786486 5.30278378,9.22678378 5.83710811,8.69164865 C5.85413514,8.67624324 6.17035135,8.38354054 6.75413514,8.38354054 C6.88305405,8.38354054 7.02089189,8.40056757 7.18386486,8.433 C7.32981081,8.46543243 7.48386486,8.41597297 7.58116216,8.29435135 C7.67845946,8.17272973 7.70278378,8.01056757 7.63791892,7.86543243 C7.629,7.85732432 7.24872973,6.99705405 7.58927027,6.25921622 C7.76764865,5.88624324 8.09927027,5.60327027 8.59467568,5.39245946 C8.72440541,6.18624324 9.25062162,7.18435135 10.6695405,7.46002703 C10.7344054,7.46002703 12.2271081,7.50786486 12.2271081,8.65110811 C12.2271081,8.67624324 12.2352162,8.69975676 12.2352162,8.73218919 C12.2433243,8.74110811 12.4379189,9.72218919 11.8784595,10.6457027 C11.7973784,10.7681351 11.7973784,10.9213784 11.8703514,11.0511081 C11.9433243,11.1808378 12.0730541,11.2619189 12.219,11.2619189 L12.5262973,11.2619189 C13.4676486,11.2619189 14.2217027,12.0167838 14.2217027,12.9565135 C14.2217027,13.4032703 14.0514324,13.8321892 13.7271081,14.1492162 C13.4027838,14.4727297 12.9811622,14.6519189 12.5262973,14.6519189 L5.4162973,14.6519189 C4.48386486,14.6519189 3.7217027,13.8889459 3.7217027,12.9565135 L3.7217027,12.9565135 Z M9.90818919,17.5051622 L14.5208919,17.5051622 C14.2217027,17.7248919 13.8803514,17.9275946 13.5649459,18.0078649 C13.5000811,18.0240811 12.1784595,18.333 11.4973784,19.2402973 C11.4730541,19.2167838 11.4649459,19.2086757 11.4568378,19.1997568 L9.90818919,17.5051622 Z M6.71359459,19.0375946 C6.63251351,19.1186757 6.55954054,19.1997568 6.48656757,19.2889459 C5.81359459,18.3484054 4.45954054,18.0240811 4.39467568,18.0078649 C4.07845946,17.9275946 3.72981081,17.7248919 3.42981081,17.5051622 L8.09197297,17.5051622 L6.71359459,19.0375946 Z M7.29737838,19.5970541 L9.00008108,17.7078649 L10.8649459,19.743 C10.8649459,19.7519189 11.1073784,20.0194865 11.1398108,20.4484054 L11.1398108,20.5375946 L6.81089189,20.5375946 C6.84332432,20.270027 6.96494595,19.9294865 7.29737838,19.5970541 L7.29737838,19.5970541 Z M16.0865676,20.5375946 L11.9506216,20.5375946 L11.9506216,20.0924595 C12.1946757,19.3213784 13.3217027,18.8916486 13.7514324,18.7943514 C14.391973,18.6321892 15.0162973,18.1708378 15.4298108,17.8132703 C15.5108919,17.9924595 15.6325135,18.2105676 15.7865676,18.4943514 C16.4027838,19.5240811 16.2162973,20.2375946 16.0865676,20.5375946 L16.0865676,20.5375946 Z M17.9433243,21.9646216 C17.9433243,21.315973 17.5054865,20.7654324 16.9135946,20.6032703 C17.0838649,20.0673243 17.1487297,19.1916486 16.491973,18.0889459 C16.3865676,17.9024595 16.2730541,17.6835405 16.1838649,17.5051622 L16.5244054,17.5051622 C17.3108919,17.5051622 17.9514324,16.8646216 17.9514324,16.0781351 C17.9514324,15.2924595 17.3108919,14.6519189 16.5244054,14.6519189 L14.3676486,14.6519189 C14.7973784,14.1889459 15.0325135,13.5889459 15.0325135,12.9565135 C15.0325135,11.6843514 14.0830541,10.6302973 12.8514324,10.4681351 C13.1757568,9.59975676 13.0695405,8.80597297 13.0379189,8.61137838 C13.0135946,7.08705405 11.4973784,6.65651351 10.7595405,6.65651351 C9.31548649,6.37354054 9.36494595,5.02759459 9.37305405,4.87272973 C9.38116216,4.743 9.33251351,4.61408108 9.22710811,4.53218919 C9.12981081,4.45191892 8.99197297,4.41948649 8.87035135,4.45191892 C7.86413514,4.71948649 7.18386486,5.20516216 6.85954054,5.91056757 C6.57575676,6.51137838 6.60818919,7.13489189 6.70548649,7.57272973 C5.80467568,7.59786486 5.29467568,8.08354054 5.27035135,8.10786486 C4.60548649,8.78083784 4.38575676,9.6402973 4.62089189,10.5808378 C4.25683784,10.7032703 3.92440541,10.9132703 3.64872973,11.1808378 C3.16954054,11.6592162 2.91089189,12.2843514 2.91089189,12.9565135 C2.91089189,13.6132703 3.16954054,14.2051622 3.58386486,14.6519189 L1.42710811,14.6519189 C0.640621622,14.6519189 8.10810811e-05,15.2924595 8.10810811e-05,16.0781351 C8.10810811e-05,16.8646216 0.640621622,17.5051622 1.42710811,17.5051622 L1.76764865,17.5051622 C1.67035135,17.6924595 1.56494595,17.8951622 1.45954054,18.0808378 C0.794675676,19.1916486 0.859540541,20.0673243 1.02981081,20.6032703 C0.437918919,20.7654324 8.10810811e-05,21.315973 8.10810811e-05,21.9646216 C8.10810811e-05,22.7511081 0.640621622,23.3916486 1.42710811,23.3916486 L1.76764865,23.3916486 C1.67035135,23.5781351 1.56494595,23.7808378 1.45954054,23.9673243 C0.794675676,25.0781351 0.859540541,25.9538108 1.02981081,26.4889459 C0.437918919,26.6519189 8.10810811e-05,27.2024595 8.10810811e-05,27.8511081 C8.10810811e-05,28.6384054 0.640621622,29.2789459 1.42710811,29.2789459 L16.5154865,29.2789459 C17.3027838,29.2789459 17.9433243,28.6384054 17.9433243,27.8511081 C17.9433243,27.2024595 17.5054865,26.6519189 16.9135946,26.4889459 C17.0838649,25.9538108 17.1487297,25.0781351 16.491973,23.9762432 C16.3865676,23.7889459 16.2730541,23.5708378 16.1838649,23.3916486 L16.5154865,23.3916486 C17.3027838,23.3916486 17.9433243,22.7511081 17.9433243,21.9646216 L17.9433243,21.9646216 Z" id="Fill-3" fill="#D0113C"></path>
            <path d="M2.25381081,22.5808378 L2.45651351,22.5808378 C2.39164865,22.5646216 2.31867568,22.5573243 2.25381081,22.5808378" id="Fill-5" fill="#D0113C"></path>
            <path d="M11.951027,26.3189189 L11.951027,26.4243243 L11.9599459,26.4243243 C11.9599459,26.3837838 11.9599459,26.3432432 11.951027,26.3189189" id="Fill-7" fill="#D0113C"></path>
            <path d="M13.2432973,13.2430541 C13.0195135,13.2430541 12.8378919,13.0614324 12.8378919,12.8376486 C12.8378919,12.5903514 12.7811351,12.4241351 12.6684324,12.3438649 C12.4495135,12.1898108 11.9881622,12.2741351 11.8000541,12.339 C11.5884324,12.411973 11.3581622,12.3008919 11.2835676,12.0892703 C11.2105946,11.8784595 11.3208649,11.6481892 11.5316757,11.5735946 C11.6305946,11.5379189 12.5168108,11.241973 13.1354595,11.6814324 C13.3697838,11.8468378 13.6487027,12.1817027 13.6487027,12.8376486 C13.6487027,13.0614324 13.4670811,13.2430541 13.2432973,13.2430541" id="Fill-9" fill="#D0113C"></path>
            <path d="M11.2709189,9.89294595 C11.0771351,9.89294595 10.9052432,9.75267568 10.872,9.55402703 C10.7909189,9.06916216 9.942,8.92727027 9.9347027,8.92645946 C9.04281081,8.75781081 8.3447027,7.68835135 8.26767568,7.56754054 C8.14767568,7.37781081 8.20443243,7.12808108 8.39335135,7.00808108 C8.5847027,6.88727027 8.83362162,6.94483784 8.95281081,7.13375676 C9.17172973,7.47754054 9.66713514,8.05078378 10.0676757,8.12618919 C10.5833514,8.19997297 11.5279459,8.55916216 11.6714595,9.42105405 C11.7079459,9.64159459 11.5587568,9.85078378 11.3382162,9.88727027 C11.3163243,9.89132432 11.2928108,9.89294595 11.2709189,9.89294595" id="Fill-11" fill="#D0113C"></path>
            <g id="Group-15" transform="translate(18.648649, 0.235135)">
                <mask id="mask-2" fill="white">
                    <use xlink:href="#path-1"></use>
                </mask>
                <g id="Clip-14"></g>
                <path d="M8.48132432,22.4106486 C8.27862162,23.862 7.52375676,25.5979459 5.08402703,25.5979459 C3.59213514,25.5979459 2.45618919,25.0052432 1.71024324,23.8384865 C1.07862162,22.8484865 0.851594595,21.5998378 1.07862162,20.3187568 L3.87510811,4.34659459 L6.23456757,4.34659459 L8.4642973,20.6682162 C8.54618919,21.2917297 8.5542973,21.8755135 8.48132432,22.4106486 L8.48132432,22.4106486 Z M6.47051351,28.1033514 C5.27051351,28.4682162 3.98051351,28.4682162 2.78132432,28.1033514 C2.91916216,27.1457838 3.68943243,26.4087568 4.62997297,26.4087568 C5.56159459,26.4087568 6.33997297,27.1457838 6.47051351,28.1033514 L6.47051351,28.1033514 Z M4.50024324,3.53497297 L5.67591892,3.53497297 L5.67591892,1.38632432 L4.50024324,1.38632432 L4.50024324,3.53497297 Z M9.26781081,20.5538919 L6.98862162,3.88362162 C6.96510811,3.68091892 6.79483784,3.53578378 6.59213514,3.53578378 L6.48672973,3.53578378 L6.48672973,0.980918919 C6.48672973,0.762 6.30024324,0.575513514 6.08132432,0.575513514 L4.09483784,0.575513514 C3.86781081,0.575513514 3.68943243,0.762 3.68943243,0.980918919 L3.68943243,3.53578378 L3.53456757,3.53578378 C3.33186486,3.53578378 3.1697027,3.67362162 3.12916216,3.86740541 L0.284027027,20.1809189 C0.0164594595,21.6647027 0.284027027,23.1160541 1.02186486,24.2755135 C1.56510811,25.1187568 2.28591892,25.7187568 3.16159459,26.0592973 C2.43267568,26.562 1.95348649,27.4222703 1.95348649,28.3863243 C1.95348649,28.5565946 2.0597027,28.7114595 2.22105405,28.7674054 C2.99943243,29.0438919 3.81024324,29.189027 4.62997297,29.189027 C5.44078378,29.189027 6.2597027,29.0438919 7.02997297,28.7674054 C7.19132432,28.7114595 7.29754054,28.5565946 7.29754054,28.3863243 C7.29754054,27.5276757 6.92456757,26.7565946 6.33997297,26.2538919 C8.49754054,25.7187568 9.11294595,23.7647027 9.28321622,22.5160541 C9.36510811,21.9168649 9.36510811,21.2511892 9.26781081,20.5538919 L9.26781081,20.5538919 Z" id="Fill-13" fill="#D0113C" mask="url(#mask-2)"></path>
            </g>
        </g>
    </g>
</svg>