<?xml version="1.0" encoding="UTF-8"?>
<svg width="33px" height="33px" viewBox="0 0 33 33" version="1.1" xmlns="http://www.w3.org/2000/svg" xmlns:xlink="http://www.w3.org/1999/xlink">
    <!-- Generator: Sketch 62 (91390) - https://sketch.com -->
    <title>instagram-logo</title>
    <desc>Created with Sketch.</desc>
    <g id="Brand" stroke="none" stroke-width="1" fill="none" fill-rule="evenodd">
        <g id="instagram-copy-2" transform="translate(-9.000000, -9.000000)" fill="#FFFFFF" fill-rule="nonzero">
            <g id="instagram-logo" transform="translate(9.000000, 9.000000)">
                <path d="M27.7326923,0 L4.75961538,0 C2.13538164,0 0,2.13538164 0,4.75961538 L0,27.7326923 C0,30.3569261 2.13538164,32.4923077 4.75961538,32.4923077 L27.7326923,32.4923077 C30.3569261,32.4923077 32.4923077,30.3569261 32.4923077,27.7326923 L32.4923077,4.75961538 C32.4923077,2.13538164 30.3569261,0 27.7326923,0 Z M16.5673077,25.1346154 C11.8431415,25.1346154 8,21.2914738 8,16.5673077 C8,11.8431415 11.8431415,8 16.5673077,8 C21.2914738,8 25.1346154,11.8431415 25.1346154,16.5673077 C25.1346154,21.2914738 21.2914738,25.1346154 16.5673077,25.1346154 Z M25.8288462,9.51923077 C24.2542067,9.51923077 22.9730769,8.23810096 22.9730769,6.66346154 C22.9730769,5.08882212 24.2542067,3.80769231 25.8288462,3.80769231 C27.4034856,3.80769231 28.6846154,5.08882212 28.6846154,6.66346154 C28.6846154,8.23810096 27.4034856,9.51923077 25.8288462,9.51923077 Z" id="Shape"></path>
                <path d="M25.8288462,5.71153846 C25.3035532,5.71153846 24.8769231,6.13816855 24.8769231,6.66346154 C24.8769231,7.18875452 25.3035532,7.61538462 25.8288462,7.61538462 C26.3541391,7.61538462 26.7807692,7.18875452 26.7807692,6.66346154 C26.7807692,6.13816855 26.3541391,5.71153846 25.8288462,5.71153846 Z" id="Path"></path>
                <path d="M16.5,11 C13.4676339,11 11,13.4676339 11,16.5 C11,19.5323661 13.4676339,22 16.5,22 C19.5323661,22 22,19.5323661 22,16.5 C22,13.4676339 19.5323661,11 16.5,11 Z" id="Path"></path>
            </g>
        </g>
    </g>
</svg>