<?xml version="1.0" encoding="UTF-8"?>
<svg width="33px" height="33px" viewBox="0 0 33 33" version="1.1" xmlns="http://www.w3.org/2000/svg" xmlns:xlink="http://www.w3.org/1999/xlink">
    <!-- Generator: Sketch 62 (91390) - https://sketch.com -->
    <title>linkedin-logo</title>
    <desc>Created with Sketch.</desc>
    <g id="Brand" stroke="none" stroke-width="1" fill="none" fill-rule="evenodd">
        <g id="linkedin-copy-2" transform="translate(-9.000000, -9.000000)" fill="#FFFFFF" fill-rule="nonzero">
            <g id="linkedin-logo" transform="translate(9.000000, 9.000000)">
                <path d="M27.9145333,0 L4.7908238,0 C2.14938317,0 0,2.14938317 0,4.7908238 L0,27.9145333 C0,30.555974 2.14938317,32.7053571 4.7908238,32.7053571 L27.9145333,32.7053571 C30.555974,32.7053571 32.7053571,30.555974 32.7053571,27.9145333 L32.7053571,4.7908238 C32.7053571,2.14938317 30.555974,0 27.9145333,0 Z M11.5618548,25.9343262 L7.72919573,25.9343262 L7.72919573,12.5200195 L11.5618548,12.5200195 L11.5618548,25.9343262 Z M11.5618548,10.60369 L7.72919573,10.60369 L7.72919573,6.77103097 L11.5618548,6.77103097 L11.5618548,10.60369 Z M24.9761614,25.9343262 L21.1435024,25.9343262 L21.1435024,18.2690081 C21.1435024,17.2125317 20.2836493,16.3526786 19.2271729,16.3526786 C18.1706964,16.3526786 17.3108433,17.2125317 17.3108433,18.2690081 L17.3108433,25.9343262 L13.4781843,25.9343262 L13.4781843,12.5200195 L17.3108433,12.5200195 L17.3108433,13.2423859 C18.3149202,12.9302338 18.9671709,12.5200195 20.1853376,12.5200195 C22.784609,12.5227643 24.9761614,14.854548 24.9761614,17.6102698 L24.9761614,25.9343262 Z" id="Shape"></path>
            </g>
        </g>
    </g>
</svg>