<?xml version="1.0" encoding="UTF-8"?>
<svg width="50px" height="50px" viewBox="0 0 50 50" version="1.1" xmlns="http://www.w3.org/2000/svg" xmlns:xlink="http://www.w3.org/1999/xlink">
    <!-- Generator: Sketch 62 (91390) - https://sketch.com -->
    <title>location</title>
    <desc>Created with Sketch.</desc>
    <defs>
        <polygon id="path-1" points="0.101785714 0 22.5267857 0 22.5267857 31.05 0.101785714 31.05"></polygon>
    </defs>
    <g id="location" stroke="none" stroke-width="1" fill="none" fill-rule="evenodd">
        <g id="Group-3-Copy" transform="translate(14.000000, 9.000000)">
            <mask id="mask-2" fill="white">
                <use xlink:href="#path-1"></use>
            </mask>
            <g id="Clip-2"></g>
            <path d="M11.3143117,16.812752 C7.85171214,16.812752 5.04480619,14.1132054 5.04480619,10.7833172 C5.04480619,7.45327934 7.85171214,4.75383254 11.3143117,4.75383254 C14.7768593,4.75383254 17.5838171,7.45327934 17.5838171,10.7833172 C17.5838171,14.1132054 14.7768593,16.812752 11.3143117,16.812752 M11.3143117,0 C5.12180012,0 0.101785714,4.82777905 0.101785714,10.7832174 C0.101785714,13.5070137 1.17658773,16.1016281 2.60455528,18.2208792 C5.0438723,21.8408653 11.3143117,31.05 11.3143117,31.05 C11.3143117,31.05 17.584751,21.8408653 20.0240161,18.2208792 C21.4519837,16.1016281 22.5267857,13.5070137 22.5267857,10.7832174 C22.5267857,4.82777905 17.5067713,0 11.3143117,0" id="Fill-1" fill="#D31145" mask="url(#mask-2)"></path>
        </g>
    </g>
</svg>