<?xml version="1.0" encoding="UTF-8"?>
<svg width="50px" height="50px" viewBox="0 0 50 50" version="1.1" xmlns="http://www.w3.org/2000/svg" xmlns:xlink="http://www.w3.org/1999/xlink">
    <!-- Generator: Sketch 62 (91390) - https://sketch.com -->
    <title>time</title>
    <desc>Created with Sketch.</desc>
    <defs>
        <polygon id="path-1" points="0 0.988888889 18.2551111 0.988888889 18.2551111 28.8888889 0 28.8888889"></polygon>
    </defs>
    <g id="time" stroke="none" stroke-width="1" fill="none" fill-rule="evenodd">
        <g id="Group-6-Copy" transform="translate(16.000000, 10.000000)">
            <path d="M9.03,27.3728889 L4.00888889,27.3728889 C3.39111111,27.3728889 3.11555556,26.5973333 3.59333333,26.2062222 L5.59555556,24.5773333 L8.61555556,22.1195556 C8.85666667,21.924 9.20222222,21.924 9.44444444,22.1195556 L12.4644444,24.5773333 L14.4655556,26.2062222 C14.9444444,26.5973333 14.6688889,27.3728889 14.0511111,27.3728889 L9.03,27.3728889 Z" id="Fill-1" fill="#D0113C"></path>
            <g id="Group-5" transform="translate(0.000000, 0.122222)">
                <mask id="mask-2" fill="white">
                    <use xlink:href="#path-1"></use>
                </mask>
                <g id="Clip-4"></g>
                <path d="M2.01066667,23.9444444 C2.01066667,20.1444444 5.09955556,17.0555556 8.89955556,17.0555556 L9.55511111,17.0555556 C13.344,17.0555556 16.4328889,20.1444444 16.4328889,23.9444444 L16.4328889,27.7777778 L2.01066667,27.7777778 L2.01066667,23.9444444 Z M1.82177778,5.93333333 L1.82177778,2.1 L16.2451111,2.1 L16.2451111,5.93333333 C16.2451111,9.73333333 13.1551111,12.8222222 9.35511111,12.8222222 L8.70066667,12.8222222 C4.91066667,12.8222222 1.82177778,9.73333333 1.82177778,5.93333333 L1.82177778,5.93333333 Z M17.6995556,27.7777778 L17.544,27.7777778 L17.544,23.9444444 C17.544,19.5444444 13.9884444,15.9666667 9.58844444,15.9444444 L9.58844444,13.9211111 C13.8884444,13.8111111 17.3562222,10.2666667 17.3562222,5.93333333 L17.3562222,2.1 L17.6995556,2.1 C18.0106667,2.1 18.2551111,1.85555556 18.2551111,1.54444444 C18.2551111,1.24444444 18.0106667,0.988888889 17.6995556,0.988888889 L0.555111111,0.988888889 C0.244,0.988888889 -0.000444444444,1.24444444 -0.000444444444,1.54444444 C-0.000444444444,1.85555556 0.244,2.1 0.555111111,2.1 L0.710666667,2.1 L0.710666667,5.93333333 C0.710666667,10.2666667 4.17733333,13.8111111 8.47733333,13.9211111 L8.47733333,15.9666667 C4.25622222,16.1777778 0.899555556,19.6777778 0.899555556,23.9444444 L0.899555556,27.7777778 L0.555111111,27.7777778 C0.244,27.7777778 -0.000444444444,28.0222222 -0.000444444444,28.3333333 C-0.000444444444,28.6333333 0.244,28.8888889 0.555111111,28.8888889 L17.6995556,28.8888889 C18.0106667,28.8888889 18.2551111,28.6333333 18.2551111,28.3333333 C18.2551111,28.0222222 18.0106667,27.7777778 17.6995556,27.7777778 L17.6995556,27.7777778 Z" id="Fill-3" fill="#D0113C" mask="url(#mask-2)"></path>
            </g>
        </g>
    </g>
</svg>