<?xml version="1.0" encoding="UTF-8"?>
<svg width="33px" height="33px" viewBox="0 0 33 33" version="1.1" xmlns="http://www.w3.org/2000/svg" xmlns:xlink="http://www.w3.org/1999/xlink">
    <!-- Generator: Sketch 62 (91390) - https://sketch.com -->
    <title>youtube</title>
    <desc>Created with Sketch.</desc>
    <g id="Symbols" stroke="none" stroke-width="1" fill="none" fill-rule="evenodd">
        <g id="Artboard" transform="translate(-164.000000, -266.000000)" fill="#FFFFFF" fill-rule="nonzero">
            <g id="youtube" transform="translate(164.000000, 266.000000)">
                <polygon id="Path" points="14.355 13.2306557 14.355 19.2445902 19.8982787 16.2637705"></polygon>
                <path d="M27.9459016,0 L5,0 C2.23857625,5.07265313e-16 -9.10721057e-13,2.23857625 -9.09494702e-13,5 L-9.09494702e-13,27.8765886 C-9.06703888e-13,30.6380123 2.23857625,32.8765886 5,32.8765886 C5.02294504,32.8765886 5.04588981,32.8764306 5.06883268,32.8761148 L28.0147343,32.5601992 C30.7490554,32.5225535 32.9459016,30.2952533 32.9459016,27.560673 L32.9459016,5 C32.9459016,2.23857625 30.7073254,1.26909153e-15 27.9459016,0 Z M26.6704918,17.2835246 C26.6704918,19.0092623 26.5136066,20.7611475 26.5136066,20.7611475 C26.5136066,20.7611475 26.3305738,22.2254098 25.7291803,22.8790984 C24.9447541,23.7419672 24.0818852,23.7419672 23.6896721,23.7942623 C20.8134426,24.0034426 16.4990984,24.0295902 16.4990984,24.0295902 C16.4990984,24.0295902 11.1388525,23.9511475 9.49155738,23.7942623 C9.04704918,23.7158197 8.00114754,23.7419672 7.21672131,22.8790984 C6.58918033,22.2254098 6.43229508,20.7611475 6.43229508,20.7611475 C6.43229508,20.7611475 6.27540984,19.0092623 6.27540984,17.2835246 L6.27540984,15.662377 C6.27540984,13.9366393 6.43229508,12.1847541 6.43229508,12.1847541 C6.43229508,12.1847541 6.61532787,10.7204918 7.21672131,10.0668033 C8.00114754,9.20393443 8.86401639,9.17778689 9.25622951,9.1254918 C12.1586066,8.91631148 16.4729508,8.89016393 16.4729508,8.89016393 C16.4729508,8.89016393 20.7872951,8.91631148 23.6635246,9.1254918 C24.0557377,9.17778689 24.9447541,9.20393443 25.7291803,10.0406557 C26.3567213,10.6943443 26.5136066,12.1847541 26.5136066,12.1847541 C26.5136066,12.1847541 26.6704918,13.9366393 26.6704918,15.662377 L26.6704918,17.2835246 Z" id="Shape"></path>
            </g>
        </g>
    </g>
</svg>