<?xml version="1.0" encoding="UTF-8"?>
<svg width="50px" height="50px" viewBox="0 0 50 50" version="1.1" xmlns="http://www.w3.org/2000/svg" xmlns:xlink="http://www.w3.org/1999/xlink">
    <!-- Generator: Sketch 62 (91390) - https://sketch.com -->
    <title>frozen shelf life</title>
    <desc>Created with Sketch.</desc>
    <g id="frozen-shelf-life" stroke="none" stroke-width="1" fill="none" fill-rule="evenodd">
        <g id="Group-39-Copy" transform="translate(16.000000, 10.000000)" stroke="#D31046">
            <path d="M15.7054138,29.6500345 L2.11748276,29.6500345 C1.23713793,29.6500345 0.517137931,28.9300345 0.517137931,28.0496897 L0.517137931,2.11727586 C0.517137931,1.23796552 1.23713793,0.516931034 2.11748276,0.516931034 L15.7054138,0.516931034 C16.5857586,0.516931034 17.3057586,1.23796552 17.3057586,2.11727586 L17.3057586,28.0496897 C17.3057586,28.9300345 16.5857586,29.6500345 15.7054138,29.6500345 Z" id="Stroke-1" stroke-width="1.03448276"></path>
            <line x1="3.48010345" y1="15.3304138" x2="14.3432069" y2="15.3304138" id="Stroke-3" stroke-width="1.03448276" stroke-linecap="round"></line>
            <path d="M6.16272414,5.61548276 C6.16272414,6.15237931 5.72824138,6.58686207 5.19237931,6.58686207 C4.65548276,6.58686207 4.221,6.15237931 4.221,5.61548276 C4.221,5.07858621 4.65548276,4.64513793 5.19237931,4.64513793 C5.72824138,4.64513793 6.16272414,5.07858621 6.16272414,5.61548276 Z" id="Stroke-5" stroke-width="1.03448276"></path>
            <path d="M13.9314828,5.61548276 C13.9314828,6.15237931 13.497,6.58686207 12.9611379,6.58686207 C12.4242414,6.58686207 11.9897586,6.15237931 11.9897586,5.61548276 C11.9897586,5.07858621 12.4242414,4.64513793 12.9611379,4.64513793 C13.497,4.64513793 13.9314828,5.07858621 13.9314828,5.61548276 Z" id="Stroke-7" stroke-width="1.03448276"></path>
            <line x1="8.91165517" y1="17.7994138" x2="8.91165517" y2="27.6673448" id="Stroke-9" stroke-width="0.775862069" stroke-linecap="round"></line>
            <line x1="8.91165517" y1="19.0334483" x2="9.80441379" y2="18.482069" id="Stroke-11" stroke-width="0.775862069" stroke-linecap="round"></line>
            <line x1="8.83334483" y1="19.0334483" x2="7.94058621" y2="18.482069" id="Stroke-13" stroke-width="0.775862069" stroke-linecap="round"></line>
            <line x1="8.83334483" y1="26.64" x2="7.94058621" y2="27.1903448" id="Stroke-15" stroke-width="0.775862069" stroke-linecap="round"></line>
            <line x1="8.91165517" y1="26.64" x2="9.80441379" y2="27.1903448" id="Stroke-17" stroke-width="0.775862069" stroke-linecap="round"></line>
            <line x1="4.72572414" y1="20.0557241" x2="13.0336552" y2="25.3791724" id="Stroke-19" stroke-width="0.775862069" stroke-linecap="round"></line>
            <line x1="5.76475862" y1="20.7215172" x2="5.78234483" y2="19.6725517" id="Stroke-21" stroke-width="0.775862069" stroke-linecap="round"></line>
            <line x1="5.72234483" y1="20.7872069" x2="4.77682759" y2="21.2413448" id="Stroke-23" stroke-width="0.775862069" stroke-linecap="round"></line>
            <line x1="12.1267241" y1="24.8913103" x2="12.1081034" y2="25.9402759" id="Stroke-25" stroke-width="0.775862069" stroke-linecap="round"></line>
            <line x1="12.1686207" y1="24.8251034" x2="13.1141379" y2="24.3709655" id="Stroke-27" stroke-width="0.775862069" stroke-linecap="round"></line>
            <line x1="13.154069" y1="20.2729655" x2="4.66406897" y2="25.3015862" id="Stroke-29" stroke-width="0.775862069" stroke-linecap="round"></line>
            <line x1="12.0923793" y1="20.9018276" x2="13.0213448" y2="21.389069" id="Stroke-31" stroke-width="0.775862069" stroke-linecap="round"></line>
            <line x1="12.0524483" y1="20.8346897" x2="12.0721034" y2="19.7857241" id="Stroke-33" stroke-width="0.775862069" stroke-linecap="round"></line>
            <line x1="5.50810345" y1="24.7104828" x2="4.57913793" y2="24.2232414" id="Stroke-35" stroke-width="0.775862069" stroke-linecap="round"></line>
            <line x1="5.54751724" y1="24.7776207" x2="5.52889655" y2="25.8265862" id="Stroke-37" stroke-width="0.775862069" stroke-linecap="round"></line>
        </g>
    </g>
</svg>