<?xml version="1.0" encoding="UTF-8"?>
<svg width="50px" height="50px" viewBox="0 0 50 50" version="1.1" xmlns="http://www.w3.org/2000/svg" xmlns:xlink="http://www.w3.org/1999/xlink">
    <!-- Generator: Sketch 62 (91390) - https://sketch.com -->
    <title>gluten free</title>
    <desc>Created with Sketch.</desc>
    <defs>
        <polygon id="path-1" points="0 0.166262403 30.4703178 0.166262403 30.4703178 30.635835 0 30.635835"></polygon>
    </defs>
    <g id="gluten-free" stroke="none" stroke-width="1" fill="none" fill-rule="evenodd">
        <g id="Group-24" transform="translate(10.000000, 9.000000)">
            <path d="M14.7216747,12.1883258 C14.6719947,12.0558458 14.5560747,11.9564858 14.4153147,11.9233658 C14.3821947,11.9150858 14.3407947,11.9068058 14.3076747,11.8976978 C14.3490747,11.8645778 14.3739147,11.8314578 14.4070347,11.7908858 C15.3012747,10.6730858 14.7465147,9.04192576 14.7216747,8.96657776 C14.6719947,8.83492576 14.5560747,8.73556576 14.4153147,8.70244576 C13.8439947,8.56996576 13.3389146,8.53684575 12.8917946,8.58569776 C13.0159946,8.30500575 13.0987946,7.99036574 13.0987946,7.65088574 C13.0987946,6.74836572 12.5191946,5.92036571 11.3848346,5.20000569 C11.2606346,5.11720569 11.1124226,5.10892569 10.9791146,5.17516569 C10.9211546,5.20745769 9.50527457,5.90380571 9.24031457,7.20293773 L10.2421946,8.39608575 C10.0683146,8.08144575 9.99379458,7.77508574 10.0269146,7.48445774 C10.1105426,6.76492572 10.7969546,6.25156571 11.1455426,6.02800571 C11.8899146,6.54881772 12.2707946,7.09612573 12.2707946,7.65088574 C12.2707946,8.44493775 11.5264226,9.14045777 11.1281546,9.45592577 L11.7822746,10.2259658 C11.8485146,10.0769258 11.9404226,9.93616578 12.0637946,9.81196578 C12.4529546,9.41369777 13.0987946,9.29860577 14.0013147,9.46420577 C14.0923947,9.86081778 14.2174227,10.7144858 13.7611946,11.2766978 C13.5964226,11.4928058 13.3563026,11.6501258 13.0573946,11.7494858 L13.8191547,12.6594578 C13.8771147,12.6594578 13.9350747,12.6768458 14.0013147,12.6851258 C14.0178747,12.7513658 14.0344347,12.8424458 14.0509947,12.9326978 L14.8715427,13.9105659 C15.0123027,13.0494458 14.7390627,12.2380058 14.7216747,12.1883258" id="Fill-1" fill="#D0113C"></path>
            <path d="M18.9118515,22.5876748 L18.9118515,27.2079149 C18.9118515,27.4397549 19.0940115,27.6219149 19.3258516,27.6219149 C19.5494116,27.6219149 19.7398516,27.4397549 19.7398516,27.2079149 L19.7398516,23.5812748 L18.9118515,22.5876748 Z M18.1500915,21.6768748 C17.4794115,21.6271948 16.9908915,21.4293028 16.7093715,21.0641548 C16.3616115,20.6344228 16.3525035,20.0457148 16.4030115,19.6068748 L15.7315035,18.8037147 C15.6412515,19.0935147 15.2429835,20.5507948 16.0552515,21.5775148 C16.5512235,22.2067948 17.3792235,22.5214348 18.5218635,22.5214348 C18.6212235,22.5214348 18.7379715,22.5131548 18.8456115,22.5131548 L18.1500915,21.6768748 Z" id="Fill-3" fill="#D0113C"></path>
            <path d="M19.2926487,12.8917946 C19.3009288,12.9091826 19.3166608,12.9249146 19.3257688,12.9497546 C19.3340488,12.9249146 19.3423288,12.9091826 19.3588888,12.8917946 L19.2926487,12.8917946 Z" id="Fill-5" fill="#D0113C"></path>
            <path d="M19.3589716,12.8917946 C19.3415836,12.9091826 19.3341316,12.9249146 19.3258516,12.9497546 C19.3167436,12.9249146 19.3010116,12.9091826 19.2927315,12.8917946 L19.3589716,12.8917946 Z" id="Fill-7" fill="#D0113C"></path>
            <path d="M11.4388202,27.2079977 C11.4388202,27.0457097 11.3071682,26.9148857 11.1457082,26.9148857 C10.9825922,26.9148857 10.8509402,27.0457097 10.8509402,27.2079977 C10.8509402,27.3694577 10.9825922,27.5011097 11.1457082,27.5011097 C11.3071682,27.5011097 11.4388202,27.3694577 11.4388202,27.2079977" id="Fill-9" fill="#D0113C"></path>
            <path d="M5.5473517,4.30535168 C5.3577397,4.46267168 5.17475169,4.61999168 4.99259169,4.78559169 C5.00087169,4.76985969 5.00997969,4.76157969 5.01743169,4.75247169 L5.5473517,4.30535168 Z" id="Fill-11" fill="#D0113C"></path>
            <path d="M5.6969713,4.18976288 C5.6464633,4.22288288 5.5976113,4.26428288 5.5471033,4.30568288 L5.6464633,4.21460288 C5.6638513,4.20632288 5.6795833,4.18976288 5.6969713,4.18976288" id="Fill-13" fill="#D0113C"></path>
            <g id="Group-17" transform="translate(0.000000, 0.662400)">
                <mask id="mask-2" fill="white">
                    <use xlink:href="#path-1"></use>
                </mask>
                <g id="Clip-16"></g>
                <path d="M25.3118777,25.6843949 C25.2125177,25.7837549 25.1131577,25.8831149 25.0146257,25.9750229 C24.9061577,26.0735549 24.8076257,26.1646349 24.6991576,26.2482629 L20.9565976,21.7927948 L20.3190376,21.0227548 L19.7477176,20.3437948 L17.4458775,17.6031147 L16.3943175,16.3611147 L15.6077175,15.4254747 L14.5395975,14.1503547 L13.9682775,13.4631146 L12.7428374,12.0141146 L12.1052774,11.2449026 L11.5596254,10.6065146 L9.30663737,7.91551454 L6.18507731,4.19779448 C6.29271731,4.10671447 6.40035732,4.02391447 6.51627732,3.94111447 C6.62391732,3.85003447 6.73238532,3.76723447 6.84747732,3.69271447 C9.20727737,1.99531444 12.1052774,0.994262418 15.2351175,0.994262418 C23.1756376,0.994262418 29.6423177,7.45183454 29.6423177,15.4006347 C29.6423177,19.4247148 27.9863177,23.0679148 25.3118777,25.6843949 M23.7395056,27.0257549 C23.6310376,27.1085549 23.5068376,27.1913549 23.3909176,27.2658749 C21.0725176,28.8730229 18.2655975,29.8078349 15.2351175,29.8078349 C7.28631733,29.8078349 0.827917215,23.3411548 0.827917215,15.4006347 C0.827917215,11.4676346 2.40939724,7.90723454 4.95963729,5.3073145 C5.05899729,5.20878249 5.15835729,5.10859449 5.2577173,5.01751449 C5.3570773,4.91815449 5.4572653,4.82790249 5.5566253,4.72771449 L8.27163735,7.96602254 L8.91747736,8.73523456 L10.7225174,10.8880346 L11.2772774,11.5421546 L11.7161174,12.0637946 L12.0141974,12.4281146 L13.4383574,14.1255147 L14.9039175,15.8725947 L15.6333855,16.7337147 L17.1312375,18.5139147 L18.9122655,20.6335948 L19.9298776,21.8507548 L24.0615976,26.7773549 C23.9539576,26.8601549 23.8463176,26.9437829 23.7395056,27.0257549 M15.2351175,0.166262403 C11.8651574,0.166262403 8.76015736,1.25839442 6.23475731,3.11311446 C6.05259731,3.24559446 5.87126531,3.37890246 5.6973853,3.52711446 C5.6468773,3.56023446 5.5971973,3.60163447 5.5475173,3.64303447 C5.3570773,3.80035447 5.17491729,3.95767447 4.99275729,4.12327447 C4.98447729,4.13983448 4.96791729,4.15639448 4.95135729,4.16467448 C4.78575729,4.30626248 4.63671728,4.46275448 4.47939728,4.61179448 C1.71387723,7.37731453 -8.28000015e-05,11.1943946 -8.28000015e-05,15.4006347 C-8.28000015e-05,23.7965548 6.83091732,30.635835 15.2351175,30.635835 C18.4891575,30.635835 21.5113576,29.6091149 23.9870776,27.8620349 C24.1535056,27.7461149 24.3182776,27.6310229 24.4755976,27.4977149 L24.4838776,27.4977149 C24.7653976,27.2832629 25.0386377,27.0588749 25.3035977,26.8187549 C25.4691977,26.6779949 25.6265177,26.5372349 25.7763857,26.3890229 C28.6652777,23.6143948 30.4703178,19.7145148 30.4703178,15.4006347 C30.4703178,6.99726253 23.6393176,0.166262403 15.2351175,0.166262403" id="Fill-15" fill="#D0113C" mask="url(#mask-2)"></path>
            </g>
            <path d="M21.9415864,14.5728831 C21.7180264,14.8461231 21.3785464,15.0282831 20.9239744,15.1193631 C20.8651864,15.1359231 20.8080544,15.1433751 20.7418144,15.1524831 C20.4602944,15.2021631 20.1365464,15.2104431 19.7730544,15.1856031 C19.7556664,15.0448431 19.7399344,14.8792431 19.7399344,14.6805231 L19.7399344,14.6474031 C19.7399344,14.1340431 19.8392944,13.496483 20.2359064,13.099043 C20.6341744,12.709883 21.2882944,12.593135 22.1734264,12.751283 C22.2727864,13.148723 22.3887064,14.0015631 21.9415864,14.5728831 M21.9415864,17.7938031 C21.5607064,18.2657631 20.8320664,18.4727631 19.7730544,18.4065231 C19.7556664,18.2740431 19.7399344,18.1001631 19.7399344,17.9097231 L19.7399344,17.8848831 C19.7399344,17.3715231 19.8392944,16.7256831 20.2359064,16.3191351 C20.4511864,16.1121351 20.7327064,15.9887631 21.0895744,15.9308031 C21.3959344,15.8811231 21.7594264,15.8976831 22.1734264,15.9713751 C22.2727864,16.3696431 22.3887064,17.2224831 21.9415864,17.7938031 M17.9100543,15.1524831 C17.8438143,15.1433751 17.7850263,15.1359231 17.7270663,15.1193631 C17.2716663,15.0282831 16.9321863,14.8461231 16.7094543,14.5728831 C16.2540543,14.0015631 16.3774263,13.148723 16.4693343,12.751283 C17.3635743,12.593135 18.0176943,12.709883 18.4060263,13.099043 C18.8125743,13.504763 18.9119343,14.1340431 18.9119343,14.6474031 L18.9119343,14.6805231 C18.9119343,14.8792431 18.8945463,15.0531231 18.8788143,15.1856031 C18.5136663,15.2104431 18.1915743,15.2021631 17.9100543,15.1524831 M19.3259344,9.32336297 C20.0703064,9.84500298 20.4511864,10.382375 20.4511864,10.937135 C20.4511864,11.732843 19.7068144,12.436643 19.3085464,12.751283 C18.5062143,12.038375 18.1410663,11.385083 18.2073063,10.772363 C18.2909343,10.052003 18.9781743,9.53864297 19.3259344,9.32336297 M22.9020664,15.4836831 C22.8532144,15.3429231 22.7372944,15.2435631 22.5957064,15.2104431 C22.5625864,15.2021631 22.5211864,15.1938831 22.4880664,15.1856031 C22.5302944,15.1524831 22.5543064,15.1193631 22.5874264,15.0771351 C23.4816664,13.9601631 22.9269064,12.329003 22.9020664,12.262763 C22.8532144,12.122003 22.7372944,12.022643 22.5957064,11.989523 C22.0252144,11.864495 21.5110264,11.823923 21.0639064,11.881883 C21.1972144,11.592083 21.2791864,11.277443 21.2791864,10.937135 C21.2791864,10.035443 20.6995864,9.20744297 19.5660544,8.48708295 C19.4410264,8.41256295 19.2928143,8.40428295 19.1603343,8.46224295 C19.0940943,8.49536295 17.5449063,9.25712297 17.3875863,10.673003 C17.3379063,11.078723 17.4049743,11.476163 17.5863063,11.881883 C17.1391863,11.823923 16.6258263,11.864495 16.0470543,11.989523 C15.9145743,12.022643 15.7978263,12.122003 15.7489743,12.262763 C15.7233063,12.329003 15.1685463,13.9601631 16.0553343,15.0771351 C16.0884543,15.1193631 16.1215743,15.1607631 16.1546943,15.1938831 C16.1215743,15.1938831 16.0801743,15.2021631 16.0470543,15.2104431 C16.0222143,15.2187231 16.0048263,15.2270031 15.9808143,15.2352831 L16.5844263,15.9556431 C16.9495743,15.8976831 17.2799463,15.8894031 17.5622943,15.9308031 C17.9183343,15.9887631 18.1990263,16.1121351 18.4060263,16.3191351 C18.8125743,16.7256831 18.9119343,17.3632431 18.9119343,17.8766031 L18.9119343,17.9097231 C18.9119343,18.1001631 18.8945463,18.2740431 18.8788143,18.4065231 C18.7951863,18.4148031 18.7206663,18.4148031 18.6469743,18.4148031 L18.9450543,18.7625631 L19.5329344,19.4663632 L19.9709464,19.9797232 C20.0371864,19.8381352 20.1290944,19.7064832 20.2359064,19.5988432 C20.6341744,19.2096831 21.2791864,19.0854831 22.1734264,19.2510831 C22.2727864,19.6485232 22.3887064,20.5013632 21.9415864,21.0644032 C21.7768144,21.2714032 21.5524264,21.4287232 21.2634544,21.5280832 L21.8182144,22.1813752 C22.1320264,22.0414432 22.3887064,21.8344432 22.5874264,21.5777632 C23.4816664,20.4591352 22.9269064,18.8288031 22.9020664,18.7542831 C22.8532144,18.6218031 22.7372944,18.5224431 22.5957064,18.4884951 C22.5460264,18.4810431 22.4971744,18.4644831 22.4466664,18.4553751 C22.5054544,18.4065231 22.5460264,18.3568431 22.5874264,18.3071631 C23.4816664,17.1893631 22.9269064,15.5499231 22.9020664,15.4836831" id="Fill-18" fill="#D0113C"></path>
            <path d="M13.7611118,21.0804664 C13.3802318,21.5607064 12.6515918,21.7677064 11.5917518,21.7014664 C11.5751918,21.5698144 11.5594598,21.3959344 11.5594598,21.1972144 L11.5594598,21.1640944 C11.5594598,20.6499064 11.6579918,20.0214544 12.0637118,19.6149064 C12.4528718,19.2174663 13.0987118,19.1015463 14.0012319,19.2679743 C14.0923119,19.6654144 14.2173399,20.5174264 13.7611118,21.0804664 L13.7611118,21.0804664 Z M10.7314598,14.5980543 C10.7314598,14.7959463 10.7140718,14.9789343 10.6983398,15.1196943 C9.63021977,15.1859343 8.90985976,14.9789343 8.52897975,14.4986943 C8.07275175,13.9348263 8.19695175,13.0828142 8.28885975,12.6845462 C8.71031176,12.6108542 9.07545976,12.5934662 9.38099177,12.6439742 C9.73785978,12.6928262 10.0185518,12.8253062 10.2255518,13.0323062 C10.6320998,13.4388542 10.7314598,14.0673063 10.7314598,14.5806663 L10.7314598,14.5980543 Z M10.7314598,17.8769343 C10.7314598,18.0748263 10.7140718,18.2487063 10.6983398,18.3894663 C9.63021977,18.4648143 8.90985976,18.2487063 8.52897975,17.7775743 C8.07275175,17.2054263 8.19695175,16.3534143 8.28885975,15.9559743 C9.19055177,15.7978263 9.83721978,15.9145743 10.2255518,16.3029063 C10.6320998,16.7094543 10.7314598,17.3461863 10.7314598,17.8595463 L10.7314598,17.8769343 Z M10.7314598,21.1798264 C10.7314598,21.3785464 10.7140718,21.5607064 10.6983398,21.7014664 C9.63021977,21.7677064 8.90985976,21.5607064 8.52897975,21.0804664 C8.07275175,20.5174264 8.19695175,19.6654144 8.28885975,19.2679743 C9.19055177,19.1015463 9.83721978,19.2174663 10.2255518,19.6149064 C10.6320998,20.0214544 10.7314598,20.6499064 10.7314598,21.1640944 L10.7314598,21.1798264 Z M14.7215919,18.7711743 C14.6727399,18.6386943 14.5559919,18.5393343 14.4152319,18.5062143 C14.3580999,18.4888263 14.2993119,18.4805463 14.2413519,18.4730943 C14.2993119,18.4143063 14.3580999,18.3571743 14.4069519,18.2909343 C14.5725519,18.0839343 14.6801919,17.8678263 14.7547119,17.6450943 L14.0848599,16.8419343 C14.0674719,17.1648543 13.9854999,17.5043343 13.7611118,17.7775743 C13.3802318,18.2487063 12.6515918,18.4648143 11.5917518,18.3894663 C11.5751918,18.2578143 11.5594598,18.0839343 11.5594598,17.8926663 L11.5594598,17.8595463 C11.5594598,17.3461863 11.6579918,16.7094543 12.0637118,16.3029063 C12.3369518,16.0296663 12.7509518,15.8889063 13.2899798,15.8889063 L12.6027398,15.0774663 C12.3121118,15.1279743 11.9734598,15.1437063 11.5917518,15.1196943 C11.5751918,14.9872143 11.5594598,14.8133343 11.5594598,14.6137863 L11.5594598,14.5806663 C11.5594598,14.3662143 11.5751918,14.1335463 11.6248718,13.9108143 L10.7554718,12.8667062 L10.3919798,12.4444262 L9.92747178,11.8896662 C9.86123178,11.8896662 9.79499178,11.8739342 9.72875178,11.8648262 C9.66333978,11.8565462 9.60455177,11.8490942 9.54659177,11.8317062 C9.09119176,11.7414542 8.75171176,11.5584662 8.52897975,11.2769462 C8.18949975,10.8629462 8.17211175,10.2841742 8.22261975,9.85278618 L7.54283174,9.05045416 C7.43519173,9.40566617 7.08743173,10.7967062 7.87485974,11.7903062 C7.90797974,11.8317062 7.93199174,11.8648262 7.97421974,11.8979462 C7.94109974,11.9070542 7.89887174,11.9153342 7.86575174,11.9227862 C7.73409974,11.9559062 7.61735174,12.0560942 7.56849974,12.1885742 C7.54283174,12.2630942 6.98807173,13.8934263 7.87485974,15.0120543 C7.91543174,15.0691863 7.96511174,15.1196943 8.01561975,15.1685463 C7.96511174,15.1685463 7.91543174,15.1859343 7.86575174,15.1942143 C7.73409974,15.2273343 7.61735174,15.3266943 7.56849974,15.4674543 C7.54283174,15.5336943 6.98807173,17.1723063 7.87485974,18.2909343 C7.92371174,18.3571743 7.98249974,18.4143063 8.04873975,18.4730943 C7.98995174,18.4805463 7.92371174,18.4888263 7.86575174,18.5062143 C7.73409974,18.5393343 7.61735174,18.6386943 7.56849974,18.7711743 C7.54283174,18.8374143 6.98807173,20.4768544 7.87485974,21.5938264 C8.37911175,22.2239344 9.19883177,22.5385744 10.3414718,22.5385744 C10.4664998,22.5385744 10.5989798,22.5294664 10.7314598,22.5294664 L10.7314598,25.4274665 C10.7314598,25.6593065 10.9136198,25.8414665 11.1454598,25.8414665 C11.3764718,25.8414665 11.5594598,25.6593065 11.5594598,25.4274665 L11.5594598,22.5294664 C11.6911118,22.5294664 11.8235918,22.5385744 11.9486198,22.5385744 C13.0904318,22.5385744 13.9109799,22.2239344 14.4069519,21.5938264 C15.3011919,20.4768544 14.7464319,18.8374143 14.7215919,18.7711743 L14.7215919,18.7711743 Z" id="Fill-20" fill="#D0113C"></path>
            <polygon id="Fill-22" fill="#D0113C" points="18.9118515 22.5133204 18.9118515 22.5878404 18.8456115 22.5133204"></polygon>
        </g>
    </g>
</svg>